location,first_name,last_name,mobile_no,appointment_date,provider_first_name,provider_last_name
Dallas,Test,user1,(123)1234-123,02/01/2021 04:00,David,Pino
Dallas,Test,user2,(123)1234-124,02/06/2021 04:00,David,Pino
Dallas,Test,user3,(123)1234-125,03/09/2021 04:00,David,Pino
